{
  "name": "simple-mvc-nodejs-server",
  "version": "1.0.0",
  "description": "",
  "main": "src/index.js",
  "scripts": {
    "start": "nodemon src/index.js localhost 5000"
  },
  "dependencies": {
    "axios": "^0.18.0",
    "bcrypt": "^5.0.1",
    "cors": "^2.8.5",
    "express": "latest",
    "fs": "^0.0.1-security",
    "jsonwebtoken": "^8.5.1",
    "mongoose": "^6.2.6",
    "multer": "^1.4.4"
  },
  "devDependencies": {
    "nodemon": "1.18.4"
  },
  "keywords": []
}
